Biodiversity_Indicators
…
Calculate indicators

For the calculation, there is a separate function for each indicator.
These can be chained sequentially.

dat <- 
  dia %>% 
  calc_alphadiv()
#> Joining with `by = join_by(eventID)`

Die berechneten Indikatorwerte sind nun in events
gespeichert.

dat$event
#> # A tibble: 454 × 3
#>    eventID  eventDate  alphadiv
#>    <chr>    <date>        <int>
#>  1 100_2011 2011-03-23       30
#>  2 100_2012 2012-03-21       24
#>  3 100_2013 2013-03-19       23
#>  4 100_2014 2014-03-20       24
#>  5 100_2015 2015-02-25       29
#>  6 100_2019 2019-02-25       36
#>  7 100_2023 2023-03-01       31
#>  8 101_2012 2012-03-21       24
#>  9 101_2015 2015-02-25       22
#> 10 101_2019 2019-02-23       22
#> # ℹ 444 more rows
…
